(module LOGO (layer F.Cu)
  (at 0 0)
 (fp_text reference "G***" (at 0 0) (layer F.SilkS) hide
  (effects (font (thickness 0.3)))
  )
  (fp_text value "LOGO" (at 0.75 0) (layer F.SilkS) hide
  (effects (font (thickness 0.3)))
  )
  (fp_poly (pts (xy -7.055967 2.105636) (xy -6.950852 2.123585) (xy -6.851908 2.157183) (xy -6.766114 2.205127) (xy -6.751291 2.216210) (xy -6.719511 2.241208) (xy -6.757318 2.316103) (xy -6.779469 2.355505)
     (xy -6.800428 2.385320) (xy -6.814894 2.398584) (xy -6.834790 2.396719) (xy -6.870336 2.384916) (xy -6.915293 2.365369) (xy -6.930164 2.358080) (xy -6.982379 2.333223) (xy -7.022701 2.318723)
     (xy -7.060671 2.312017) (xy -7.105826 2.310546) (xy -7.107205 2.310554) (xy -7.186830 2.318773) (xy -7.247146 2.342494) (xy -7.288835 2.382169) (xy -7.312582 2.438249) (xy -7.314551 2.447639)
     (xy -7.312370 2.499064) (xy -7.289773 2.549419) (xy -7.250494 2.591068) (xy -7.241365 2.597423) (xy -7.210601 2.613453) (xy -7.164361 2.633132) (xy -7.111141 2.652924) (xy -7.094482 2.658554)
     (xy -6.988862 2.695929) (xy -6.904827 2.732146) (xy -6.839150 2.769299) (xy -6.788603 2.809484) (xy -6.749960 2.854794) (xy -6.724032 2.898959) (xy -6.710457 2.935461) (xy -6.702960 2.981393)
     (xy -6.700433 3.043978) (xy -6.700412 3.053005) (xy -6.701679 3.110582) (xy -6.706727 3.153056) (xy -6.717550 3.190286) (xy -6.736144 3.232129) (xy -6.737055 3.233991) (xy -6.791323 3.320335)
     (xy -6.861316 3.388025) (xy -6.940392 3.435444) (xy -7.007970 3.458451) (xy -7.090336 3.472594) (xy -7.178712 3.477438) (xy -7.264324 3.472550) (xy -7.338396 3.457495) (xy -7.344729 3.455448)
     (xy -7.445184 3.416130) (xy -7.526843 3.372581) (xy -7.567912 3.343024) (xy -7.609666 3.308374) (xy -7.581440 3.258892) (xy -7.543458 3.200537) (xy -7.509313 3.165004) (xy -7.479991 3.153104)
     (xy -7.457922 3.159747) (xy -7.423541 3.177038) (xy -7.389836 3.197668) (xy -7.310792 3.240792) (xy -7.232292 3.266686) (xy -7.157219 3.276210) (xy -7.088454 3.270225) (xy -7.028880 3.249590)
     (xy -6.981378 3.215165) (xy -6.948831 3.167810) (xy -6.934121 3.108386) (xy -6.935691 3.062161) (xy -6.948072 3.017582) (xy -6.974018 2.980127) (xy -7.016402 2.947568) (xy -7.078099 2.917678)
     (xy -7.158857 2.889209) (xy -7.251031 2.858728) (xy -7.322860 2.831146) (xy -7.378521 2.804380) (xy -7.422193 2.776349) (xy -7.458054 2.744968) (xy -7.466902 2.735692) (xy -7.508888 2.680981)
     (xy -7.534977 2.622193) (xy -7.547670 2.552118) (xy -7.549923 2.496207) (xy -7.538700 2.398404) (xy -7.505478 2.311416) (xy -7.451539 2.236880) (xy -7.378166 2.176434) (xy -7.286641 2.131714)
     (xy -7.256791 2.121893) (xy -7.160273 2.104638) (xy -7.055967 2.105636) )(layer F.SilkS) (width  0.010000)
  )
  (fp_poly (pts (xy -2.366100 2.109243) (xy -2.308910 2.119936) (xy -2.241668 2.140854) (xy -2.170707 2.171239) (xy -2.104717 2.206782) (xy -2.052391 2.243175) (xy -2.042139 2.252203) (xy -2.013491 2.279140)
     (xy -2.056677 2.337443) (xy -2.088887 2.379372) (xy -2.114593 2.404593) (xy -2.139995 2.414246) (xy -2.171292 2.409472) (xy -2.214684 2.391414) (xy -2.251770 2.373360) (xy -2.303466 2.348554)
     (xy -2.342323 2.333146) (xy -2.377664 2.324909) (xy -2.418809 2.321615) (xy -2.470735 2.321035) (xy -2.529276 2.322050) (xy -2.571822 2.326250) (xy -2.607360 2.335364) (xy -2.644878 2.351124)
     (xy -2.656724 2.356846) (xy -2.744339 2.412468) (xy -2.812533 2.483794) (xy -2.861359 2.570908) (xy -2.890867 2.673894) (xy -2.899868 2.752021) (xy -2.898071 2.871909) (xy -2.877649 2.976152)
     (xy -2.837998 3.066463) (xy -2.778513 3.144561) (xy -2.753029 3.169209) (xy -2.691575 3.216291) (xy -2.627983 3.246408) (xy -2.555698 3.261624) (xy -2.468167 3.264006) (xy -2.454160 3.263425)
     (xy -2.361461 3.251990) (xy -2.283675 3.228048) (xy -2.224217 3.192807) (xy -2.206360 3.175849) (xy -2.180007 3.157843) (xy -2.160037 3.153104) (xy -2.138835 3.161428) (xy -2.108646 3.182485)
     (xy -2.076036 3.210400) (xy -2.047570 3.239299) (xy -2.029816 3.263307) (xy -2.026995 3.272121) (xy -2.037590 3.294733) (xy -2.066344 3.324536) (xy -2.108712 3.358203) (xy -2.160147 3.392404)
     (xy -2.216103 3.423811) (xy -2.264729 3.446193) (xy -2.304062 3.456651) (xy -2.361517 3.465063) (xy -2.430252 3.471117) (xy -2.503425 3.474502) (xy -2.574193 3.474905) (xy -2.635715 3.472015)
     (xy -2.681149 3.465521) (xy -2.682409 3.465213) (xy -2.718892 3.453455) (xy -2.766954 3.434508) (xy -2.813789 3.413586) (xy -2.909383 3.354737) (xy -2.990466 3.278289) (xy -3.056533 3.187381)
     (xy -3.107080 3.085150) (xy -3.141601 2.974737) (xy -3.159591 2.859279) (xy -3.160547 2.741915) (xy -3.143962 2.625784) (xy -3.109332 2.514024) (xy -3.056153 2.409775) (xy -2.989363 2.322049)
     (xy -2.900147 2.238761) (xy -2.803122 2.176844) (xy -2.695007 2.134801) (xy -2.572521 2.111136) (xy -2.516207 2.106329) (xy -2.434417 2.104266) (xy -2.366100 2.109243) )(layer F.SilkS) (width  0.010000)
  )
  (fp_poly (pts (xy 7.233400 2.108949) (xy 7.352451 2.131271) (xy 7.460449 2.171943) (xy 7.553694 2.229850) (xy 7.574002 2.246659) (xy 7.609334 2.277630) (xy 7.562749 2.341092) (xy 7.530391 2.382243)
     (xy 7.502842 2.406193) (xy 7.474133 2.413891) (xy 7.438291 2.406284) (xy 7.389349 2.384319) (xy 7.365923 2.372326) (xy 7.317326 2.347819) (xy 7.280543 2.332692) (xy 7.246187 2.324690)
     (xy 7.204868 2.321557) (xy 7.152430 2.321035) (xy 7.094767 2.321874) (xy 7.052905 2.325673) (xy 7.017641 2.334356) (xy 6.979773 2.349848) (xy 6.952914 2.362749) (xy 6.874035 2.412100)
     (xy 6.812908 2.475141) (xy 6.766601 2.555400) (xy 6.744515 2.613903) (xy 6.730465 2.662253) (xy 6.722554 2.705044) (xy 6.719762 2.751788) (xy 6.721068 2.811996) (xy 6.721723 2.826339)
     (xy 6.726058 2.890809) (xy 6.733086 2.939322) (xy 6.744744 2.980936) (xy 6.762968 3.024708) (xy 6.765147 3.029383) (xy 6.816458 3.117337) (xy 6.878555 3.183341) (xy 6.953591 3.228841)
     (xy 7.043720 3.255281) (xy 7.113252 3.263032) (xy 7.197010 3.263342) (xy 7.265758 3.252717) (xy 7.327885 3.229091) (xy 7.382622 3.196657) (xy 7.419995 3.173582) (xy 7.451467 3.157792)
     (xy 7.467508 3.153104) (xy 7.486976 3.161637) (xy 7.515614 3.183174) (xy 7.546972 3.211616) (xy 7.574602 3.240867) (xy 7.592053 3.264830) (xy 7.594976 3.273601) (xy 7.585136 3.291985)
     (xy 7.559151 3.318874) (xy 7.522320 3.349875) (xy 7.479942 3.380596) (xy 7.437318 3.406645) (xy 7.429398 3.410822) (xy 7.381438 3.431958) (xy 7.325771 3.451810) (xy 7.298518 3.459760)
     (xy 7.235020 3.470782) (xy 7.156657 3.476316) (xy 7.072923 3.476394) (xy 6.993316 3.471052) (xy 6.927332 3.460323) (xy 6.919734 3.458396) (xy 6.823885 3.422164) (xy 6.732195 3.368033)
     (xy 6.649975 3.300326) (xy 6.582534 3.223364) (xy 6.537873 3.147586) (xy 6.490108 3.015856) (xy 6.464253 2.883217) (xy 6.459964 2.752395) (xy 6.476895 2.626118) (xy 6.514700 2.507110)
     (xy 6.573036 2.398100) (xy 6.643900 2.309650) (xy 6.736532 2.228174) (xy 6.838345 2.168174) (xy 6.951983 2.128491) (xy 7.080086 2.107962) (xy 7.106995 2.106091) (xy 7.233400 2.108949) )(layer F.SilkS) (width  0.010000)
  )
  (fp_poly (pts (xy -5.877660 2.114830) (xy -5.795503 2.115578) (xy -5.715495 2.117505) (xy -5.643516 2.120379) (xy -5.585445 2.123973) (xy -5.550221 2.127591) (xy -5.441597 2.153527) (xy -5.347570 2.197138)
     (xy -5.270080 2.257108) (xy -5.211065 2.332124) (xy -5.190764 2.371084) (xy -5.172108 2.433061) (xy -5.162770 2.508935) (xy -5.162827 2.589350) (xy -5.172359 2.664946) (xy -5.187871 2.718190)
     (xy -5.234108 2.803589) (xy -5.296573 2.872400) (xy -5.376114 2.925057) (xy -5.473580 2.961993) (xy -5.589820 2.983641) (xy -5.720757 2.990444) (xy -5.868276 2.990444) (xy -5.868276 3.465912)
     (xy -6.118522 3.465912) (xy -6.118522 2.796503) (xy -5.868322 2.796503) (xy -5.715023 2.789334) (xy -5.653431 2.785730) (xy -5.599249 2.781228) (xy -5.558356 2.776403) (xy -5.536699 2.771859)
     (xy -5.485447 2.738037) (xy -5.446197 2.686951) (xy -5.420526 2.624083) (xy -5.410010 2.554918) (xy -5.416224 2.484939) (xy -5.437308 2.426023) (xy -5.459298 2.397030) (xy -5.492796 2.366367)
     (xy -5.507950 2.355390) (xy -5.531905 2.340740) (xy -5.555341 2.330624) (xy -5.583957 2.323920) (xy -5.623452 2.319505) (xy -5.679527 2.316256) (xy -5.714077 2.314779) (xy -5.868322 2.308523)
     (xy -5.868322 2.796503) (xy -6.118522 2.796503) (xy -6.118522 2.114582) (xy -5.877660 2.114830) )(layer F.SilkS) (width  0.010000)
  )
  (fp_poly (pts (xy -4.207866 2.117302) (xy -4.077091 2.120838) (xy -3.961065 2.414877) (xy -3.883946 2.610387) (xy -3.815789 2.783328) (xy -3.756324 2.934390) (xy -3.705280 3.064263) (xy -3.662389 3.173638)
     (xy -3.627378 3.263206) (xy -3.599979 3.333655) (xy -3.579920 3.385677) (xy -3.566932 3.419962) (xy -3.560744 3.437200) (xy -3.560567 3.437759) (xy -3.557397 3.451154) (xy -3.561033 3.459441)
     (xy -3.575934 3.463845) (xy -3.606557 3.465593) (xy -3.657360 3.465911) (xy -3.662873 3.465912) (xy -3.725630 3.463985) (xy -3.771034 3.458509) (xy -3.794825 3.450271) (xy -3.809600 3.430975)
     (xy -3.828020 3.395633) (xy -3.845551 3.353301) (xy -3.909942 3.177780) (xy -3.966263 3.024326) (xy -4.015072 2.891517) (xy -4.056925 2.777928) (xy -4.092381 2.682138) (xy -4.121998 2.602724)
     (xy -4.146333 2.538262) (xy -4.165946 2.487330) (xy -4.181393 2.448505) (xy -4.193232 2.420365) (xy -4.202023 2.401485) (xy -4.208321 2.390443) (xy -4.212686 2.385817) (xy -4.215675 2.386184)
     (xy -4.217847 2.390120) (xy -4.219758 2.396203) (xy -4.220226 2.397776) (xy -4.230998 2.431270) (xy -4.247881 2.481271) (xy -4.268422 2.540773) (xy -4.290169 2.602771) (xy -4.310670 2.660256)
     (xy -4.327474 2.706224) (xy -4.335680 2.727685) (xy -4.344618 2.751078) (xy -4.360788 2.794333) (xy -4.382841 2.853802) (xy -4.409428 2.925841) (xy -4.439201 3.006802) (xy -4.467606 3.084286)
     (xy -4.504796 3.185674) (xy -4.534548 3.266095) (xy -4.557928 3.328115) (xy -4.576002 3.374304) (xy -4.589835 3.407229) (xy -4.600495 3.429458) (xy -4.609046 3.443559) (xy -4.616554 3.452100)
     (xy -4.622045 3.456336) (xy -4.640288 3.460879) (xy -4.674624 3.463875) (xy -4.718389 3.465346) (xy -4.764919 3.465315) (xy -4.807549 3.463802) (xy -4.839613 3.460830) (xy -4.854448 3.456422)
     (xy -4.854778 3.455565) (xy -4.850411 3.441881) (xy -4.838111 3.408036) (xy -4.819083 3.357169) (xy -4.794530 3.292417) (xy -4.765654 3.216918) (xy -4.733659 3.133809) (xy -4.699750 3.046228)
     (xy -4.665128 2.957312) (xy -4.630998 2.870199) (xy -4.604399 2.802759) (xy -4.571850 2.720319) (xy -4.537425 2.632768) (xy -4.502377 2.543332) (xy -4.467961 2.455236) (xy -4.435432 2.371706)
     (xy -4.406043 2.295967) (xy -4.381050 2.231246) (xy -4.361707 2.180766) (xy -4.349268 2.147755) (xy -4.345125 2.136071) (xy -4.339709 2.126085) (xy -4.327415 2.119857) (xy -4.303639 2.116758)
     (xy -4.263778 2.116158) (xy -4.207866 2.117302) )(layer F.SilkS) (width  0.010000)
  )
  (fp_poly (pts (xy -0.600591 2.314779) (xy -1.201182 2.314779) (xy -1.201182 2.690148) (xy -0.737174 2.690148) (xy -0.740828 2.787119) (xy -0.744735 2.843295) (xy -0.751452 2.875751) (xy -0.760123 2.885653)
     (xy -0.777321 2.886259) (xy -0.815073 2.886949) (xy -0.868908 2.887662) (xy -0.934356 2.888336) (xy -0.988473 2.888781) (xy -1.201182 2.890345) (xy -1.201182 3.265715) (xy -0.600591 3.265715)
     (xy -0.600591 3.465912) (xy -1.026402 3.465912) (xy -1.146870 3.465707) (xy -1.244319 3.465046) (xy -1.320750 3.463855) (xy -1.378167 3.462061) (xy -1.418571 3.459593) (xy -1.443965 3.456377)
     (xy -1.456351 3.452342) (xy -1.458202 3.450271) (xy -1.459289 3.435083) (xy -1.460192 3.397257) (xy -1.460899 3.339179) (xy -1.461401 3.263234) (xy -1.461689 3.171808) (xy -1.461754 3.067287)
     (xy -1.461584 2.952057) (xy -1.461171 2.828504) (xy -1.460937 2.777734) (xy -1.457684 2.120838) (xy -1.029138 2.117545) (xy -0.600591 2.114253) (xy -0.600591 2.314779) )(layer F.SilkS) (width  0.010000)
  )
  (fp_poly (pts (xy 0.157055 2.115701) (xy 0.196103 2.119662) (xy 0.221513 2.127371) (xy 0.235399 2.136478) (xy 0.247218 2.152470) (xy 0.268978 2.187588) (xy 0.299014 2.238783) (xy 0.335666 2.303009)
     (xy 0.377269 2.377218) (xy 0.422163 2.458364) (xy 0.468683 2.543398) (xy 0.515168 2.629275) (xy 0.559954 2.712946) (xy 0.601380 2.791365) (xy 0.637783 2.861484) (xy 0.667500 2.920256)
     (xy 0.688868 2.964634) (xy 0.695949 2.980585) (xy 0.715540 3.027031) (xy 0.787450 2.886742) (xy 0.815032 2.833387) (xy 0.849483 2.767450) (xy 0.889049 2.692224) (xy 0.931973 2.611002)
     (xy 0.976500 2.527079) (xy 1.020875 2.443749) (xy 1.063341 2.364304) (xy 1.102142 2.292038) (xy 1.135524 2.230246) (xy 1.161731 2.182221) (xy 1.179006 2.151255) (xy 1.184037 2.142734)
     (xy 1.193984 2.129841) (xy 1.207725 2.121618) (xy 1.230522 2.117027) (xy 1.267640 2.115028) (xy 1.324341 2.114582) (xy 1.451429 2.114582) (xy 1.451429 3.465912) (xy 1.226501 3.465912)
     (xy 1.219951 2.502968) (xy 1.176805 2.587174) (xy 1.152474 2.634077) (xy 1.120874 2.694177) (xy 1.086651 2.758666) (xy 1.063056 2.802759) (xy 1.013892 2.894351) (xy 0.967695 2.980626)
     (xy 0.926142 3.058435) (xy 0.890910 3.124631) (xy 0.863677 3.176066) (xy 0.846120 3.209591) (xy 0.842917 3.215832) (xy 0.811286 3.265029) (xy 0.775029 3.292871) (xy 0.728953 3.303021)
     (xy 0.718971 3.303252) (xy 0.667088 3.296221) (xy 0.640415 3.280514) (xy 0.628101 3.263255) (xy 0.606052 3.227343) (xy 0.576261 3.176229) (xy 0.540722 3.113367) (xy 0.501427 3.042208)
     (xy 0.479655 3.002115) (xy 0.435272 2.919907) (xy 0.390245 2.836513) (xy 0.347499 2.757347) (xy 0.309956 2.687825) (xy 0.280542 2.633363) (xy 0.274043 2.621330) (xy 0.206453 2.496207)
     (xy 0.203178 2.981060) (xy 0.199903 3.465912) (xy -0.012512 3.465912) (xy -0.012512 2.114582) (xy 0.098713 2.114582) (xy 0.157055 2.115701) )(layer F.SilkS) (width  0.010000)
  )
  (fp_poly (pts (xy 2.774704 2.180271) (xy 2.786268 2.209177) (xy 2.805491 2.257633) (xy 2.830894 2.321892) (xy 2.860999 2.398207) (xy 2.894325 2.482832) (xy 2.929393 2.572020) (xy 2.931561 2.577537)
     (xy 2.972461 2.681651) (xy 3.016943 2.794881) (xy 3.062254 2.910225) (xy 3.105644 3.020678) (xy 3.144361 3.119238) (xy 3.165037 3.171872) (xy 3.195124 3.248444) (xy 3.222322 3.317627)
     (xy 3.245236 3.375873) (xy 3.262468 3.419634) (xy 3.272624 3.445360) (xy 3.274579 3.450271) (xy 3.271397 3.457909) (xy 3.252323 3.462765) (xy 3.214198 3.465282) (xy 3.162638 3.465912)
     (xy 3.104546 3.465110) (xy 3.066089 3.462128) (xy 3.041908 3.456098) (xy 3.026650 3.446154) (xy 3.024085 3.443495) (xy 3.015871 3.432361) (xy 3.006192 3.414497) (xy 2.994002 3.387251)
     (xy 2.978251 3.347972) (xy 2.957891 3.294006) (xy 2.931876 3.222703) (xy 2.899156 3.131410) (xy 2.884610 3.090542) (xy 2.861525 3.025875) (xy 2.834110 2.949497) (xy 2.806605 2.873208)
     (xy 2.792422 2.834040) (xy 2.767932 2.766512) (xy 2.738682 2.685817) (xy 2.708429 2.602319) (xy 2.682173 2.529820) (xy 2.660439 2.471811) (xy 2.641445 2.424902) (xy 2.626794 2.392771)
     (xy 2.618094 2.379094) (xy 2.616620 2.379672) (xy 2.603216 2.419709) (xy 2.583237 2.476705) (xy 2.557766 2.547764) (xy 2.527886 2.629994) (xy 2.494683 2.720499) (xy 2.459238 2.816385)
     (xy 2.422635 2.914758) (xy 2.385959 3.012723) (xy 2.350292 3.107387) (xy 2.316718 3.195854) (xy 2.286320 3.275231) (xy 2.260183 3.342623) (xy 2.239389 3.395136) (xy 2.225022 3.429875)
     (xy 2.218217 3.443892) (xy 2.203964 3.454671) (xy 2.181380 3.461360) (xy 2.145135 3.464817) (xy 2.089900 3.465900) (xy 2.081413 3.465912) (xy 1.964536 3.465912) (xy 1.987553 3.406478)
     (xy 2.009608 3.349727) (xy 2.039351 3.273494) (xy 2.075294 3.181577) (xy 2.115946 3.077777) (xy 2.159821 2.965893) (xy 2.205429 2.849723) (xy 2.251281 2.733067) (xy 2.282940 2.652611)
     (xy 2.317898 2.563783) (xy 2.352783 2.475086) (xy 2.385600 2.391594) (xy 2.414357 2.318380) (xy 2.437060 2.260516) (xy 2.446437 2.236577) (xy 2.494175 2.114582) (xy 2.748105 2.114582)
     (xy 2.774704 2.180271) )(layer F.SilkS) (width  0.010000)
  )
  (fp_poly (pts (xy 4.820370 2.114575) (xy 4.929852 2.114582) (xy 4.929852 3.465912) (xy 4.841880 3.465912) (xy 4.814330 3.466172) (xy 4.791923 3.465590) (xy 4.772395 3.462123) (xy 4.753477 3.453729)
     (xy 4.732904 3.438365) (xy 4.708410 3.413989) (xy 4.677727 3.378558) (xy 4.638591 3.330029) (xy 4.588735 3.266360) (xy 4.525892 3.185508) (xy 4.514436 3.170783) (xy 4.450748 3.089104)
     (xy 4.378555 2.996755) (xy 4.304150 2.901773) (xy 4.233827 2.812193) (xy 4.185370 2.750622) (xy 4.022710 2.544260) (xy 4.019429 3.005086) (xy 4.016149 3.465912) (xy 3.791232 3.465912)
     (xy 3.791232 2.114582) (xy 3.877112 2.114582) (xy 3.924887 2.115710) (xy 3.955729 2.120578) (xy 3.977686 2.131409) (xy 3.995789 2.147379) (xy 4.017090 2.171113) (xy 4.052250 2.213371)
     (xy 4.100091 2.272672) (xy 4.159436 2.347537) (xy 4.229105 2.436485) (xy 4.307923 2.538038) (xy 4.348030 2.590008) (xy 4.435774 2.703501) (xy 4.512542 2.801971) (xy 4.577670 2.884589)
     (xy 4.630493 2.950525) (xy 4.670346 2.998949) (xy 4.696565 3.029031) (xy 4.708483 3.039942) (xy 4.708662 3.039969) (xy 4.710887 3.028038) (xy 4.712733 2.993835) (xy 4.714163 2.940108)
     (xy 4.715140 2.869607) (xy 4.715627 2.785081) (xy 4.715587 2.689279) (xy 4.714982 2.584952) (xy 4.714918 2.577530) (xy 4.710887 2.114567) (xy 4.820370 2.114575) )(layer F.SilkS) (width  0.010000)
  )
  (fp_poly (pts (xy 5.855764 3.465912) (xy 5.605518 3.465912) (xy 5.605518 2.114582) (xy 5.855764 2.114582) (xy 5.855764 3.465912) )(layer F.SilkS) (width  0.010000)
  )
  (fp_poly (pts (xy -0.674294 -0.323125) (xy -0.650270 -0.318983) (xy -0.632492 -0.310595) (xy -0.617249 -0.297755) (xy -0.604854 -0.284655) (xy -0.575100 -0.254723) (xy -0.535318 -0.217875) (xy -0.500675 -0.187684)
     (xy -0.465109 -0.157594) (xy -0.436198 -0.132865) (xy -0.420220 -0.118867) (xy -0.395467 -0.098429) (xy -0.358125 -0.070154) (xy -0.315620 -0.039379) (xy -0.275375 -0.011441) (xy -0.244815 0.008321)
     (xy -0.237734 0.012343) (xy -0.212706 0.026856) (xy -0.200197 0.036282) (xy -0.184035 0.047874) (xy -0.150018 0.067483) (xy -0.102991 0.092594) (xy -0.047799 0.120693) (xy 0.010712 0.149266)
     (xy 0.067697 0.175799) (xy 0.075074 0.179117) (xy 0.177999 0.219383) (xy 0.296579 0.256078) (xy 0.425012 0.288133) (xy 0.557499 0.314481) (xy 0.688242 0.334053) (xy 0.811441 0.345783)
     (xy 0.921296 0.348602) (xy 0.978908 0.345525) (xy 1.021112 0.342871) (xy 1.051392 0.343391) (xy 1.063388 0.346962) (xy 1.063399 0.347130) (xy 1.053718 0.358781) (xy 1.029266 0.378817)
     (xy 0.996657 0.402618) (xy 0.962501 0.425565) (xy 0.933409 0.443039) (xy 0.915993 0.450422) (xy 0.915516 0.450444) (xy 0.899795 0.458900) (xy 0.898802 0.460831) (xy 0.886656 0.470018)
     (xy 0.857223 0.487173) (xy 0.815841 0.509566) (xy 0.767844 0.534466) (xy 0.718570 0.559145) (xy 0.673355 0.580872) (xy 0.637534 0.596917) (xy 0.619360 0.603788) (xy 0.596778 0.611149)
     (xy 0.557468 0.624542) (xy 0.508278 0.641622) (xy 0.484212 0.650074) (xy 0.426036 0.668443) (xy 0.353250 0.688310) (xy 0.275928 0.707057) (xy 0.215912 0.719814) (xy 0.156144 0.730913)
     (xy 0.103399 0.738973) (xy 0.051709 0.744424) (xy -0.004893 0.747694) (xy -0.072373 0.749214) (xy -0.156701 0.749412) (xy -0.193226 0.749237) (xy -0.274068 0.748188) (xy -0.350021 0.746162)
     (xy -0.416142 0.743370) (xy -0.467484 0.740024) (xy -0.499105 0.736336) (xy -0.500492 0.736062) (xy -0.599779 0.715191) (xy -0.679552 0.697548) (xy -0.744890 0.681725) (xy -0.800871 0.666316)
     (xy -0.852572 0.649912) (xy -0.905073 0.631106) (xy -0.963451 0.608491) (xy -0.969704 0.606007) (xy -1.023110 0.583071) (xy -1.087793 0.552763) (xy -1.157141 0.518447) (xy -1.224542 0.483487)
     (xy -1.283381 0.451247) (xy -1.327047 0.425089) (xy -1.332561 0.421438) (xy -1.471113 0.319766) (xy -1.604592 0.206673) (xy -1.727553 0.087269) (xy -1.834548 -0.033332) (xy -1.880846 -0.093153)
     (xy -1.913272 -0.138956) (xy -1.938479 -0.177604) (xy -1.953690 -0.204628) (xy -1.956670 -0.215148) (xy -1.942447 -0.219050) (xy -1.908304 -0.222249) (xy -1.859341 -0.224415) (xy -1.800659 -0.225221)
     (xy -1.800039 -0.225221) (xy -1.726176 -0.226316) (xy -1.647275 -0.229267) (xy -1.574588 -0.233575) (xy -1.534891 -0.236981) (xy -1.474995 -0.242924) (xy -1.400343 -0.250045) (xy -1.321111 -0.257386)
     (xy -1.257487 -0.263107) (xy -1.180848 -0.270433) (xy -1.090390 -0.279941) (xy -0.997088 -0.290434) (xy -0.911919 -0.300715) (xy -0.907143 -0.301320) (xy -0.820991 -0.312117) (xy -0.755941 -0.319487)
     (xy -0.708280 -0.323225) (xy -0.674294 -0.323125) )(layer F.SilkS) (width  0.010000)
  )
  (fp_poly (pts (xy 1.891575 -0.914992) (xy 1.888923 -0.885031) (xy 1.879461 -0.840216) (xy 1.864432 -0.784738) (xy 1.845081 -0.722787) (xy 1.822651 -0.658555) (xy 1.798384 -0.596230) (xy 1.773526 -0.540003)
     (xy 1.768716 -0.530108) (xy 1.745432 -0.484895) (xy 1.727610 -0.457397) (xy 1.710498 -0.442484) (xy 1.689342 -0.435027) (xy 1.678706 -0.432987) (xy 1.654338 -0.430824) (xy 1.608749 -0.428659)
     (xy 1.545741 -0.426546) (xy 1.469117 -0.424540) (xy 1.382681 -0.422696) (xy 1.290234 -0.421068) (xy 1.195581 -0.419711) (xy 1.102524 -0.418680) (xy 1.014865 -0.418029) (xy 0.936409 -0.417812)
     (xy 0.870957 -0.418084) (xy 0.822313 -0.418901) (xy 0.794532 -0.420290) (xy 0.663319 -0.434492) (xy 0.552827 -0.448081) (xy 0.463802 -0.460929) (xy 0.396994 -0.472906) (xy 0.353150 -0.483884)
     (xy 0.333019 -0.493732) (xy 0.333483 -0.499926) (xy 0.349894 -0.506558) (xy 0.384527 -0.516156) (xy 0.431018 -0.527025) (xy 0.450444 -0.531129) (xy 0.621470 -0.568504) (xy 0.809492 -0.613673)
     (xy 1.008343 -0.664959) (xy 1.211856 -0.720683) (xy 1.413863 -0.779171) (xy 1.608198 -0.838743) (xy 1.747053 -0.883740) (xy 1.800257 -0.901080) (xy 1.844949 -0.914960) (xy 1.875626 -0.923714)
     (xy 1.886174 -0.925911) (xy 1.891575 -0.914992) )(layer F.SilkS) (width  0.010000)
  )
  (fp_poly (pts (xy -0.381625 -3.477746) (xy -0.431675 -3.432313) (xy -0.527244 -3.344125) (xy -0.607165 -3.266615) (xy -0.675532 -3.195086) (xy -0.736439 -3.124838) (xy -0.793980 -3.051171) (xy -0.852248 -2.969386)
     (xy -0.909261 -2.884088) (xy -0.945309 -2.823451) (xy -0.985688 -2.746430) (xy -1.026852 -2.660393) (xy -1.065253 -2.572707) (xy -1.093316 -2.501730) (xy -1.158902 -2.289910) (xy -1.201266 -2.072170)
     (xy -1.220440 -1.851179) (xy -1.216455 -1.629607) (xy -1.189341 -1.410121) (xy -1.139130 -1.195393) (xy -1.076035 -1.012914) (xy -1.053228 -0.956029) (xy -1.032530 -0.904114) (xy -1.016554 -0.863740)
     (xy -1.009087 -0.844581) (xy -0.996896 -0.816619) (xy -0.987298 -0.800967) (xy -0.987090 -0.800788) (xy -0.976762 -0.786377) (xy -0.961360 -0.759154) (xy -0.958795 -0.754212) (xy -0.937772 -0.716795)
     (xy -0.912147 -0.675716) (xy -0.907000 -0.668008) (xy -0.888062 -0.638208) (xy -0.877020 -0.617172) (xy -0.875862 -0.613004) (xy -0.880119 -0.607970) (xy -0.894217 -0.602873) (xy -0.920145 -0.597463)
     (xy -0.959892 -0.591488) (xy -1.015446 -0.584696) (xy -1.088797 -0.576836) (xy -1.181933 -0.567655) (xy -1.296843 -0.556902) (xy -1.376354 -0.549656) (xy -1.427527 -0.545892) (xy -1.498111 -0.541930)
     (xy -1.582495 -0.538020) (xy -1.675069 -0.534412) (xy -1.770224 -0.531355) (xy -1.814658 -0.530169) (xy -1.913096 -0.527953) (xy -1.989350 -0.526834) (xy -2.046241 -0.526898) (xy -2.086588 -0.528229)
     (xy -2.113212 -0.530914) (xy -2.128933 -0.535039) (xy -2.135992 -0.539931) (xy -2.148558 -0.563063) (xy -2.165605 -0.605546) (xy -2.185566 -0.662447) (xy -2.206873 -0.728834) (xy -2.227959 -0.799776)
     (xy -2.247258 -0.870338) (xy -2.263202 -0.935591) (xy -2.266574 -0.950936) (xy -2.276122 -0.998686) (xy -2.283280 -1.043592) (xy -2.288385 -1.090531) (xy -2.291770 -1.144380) (xy -2.293772 -1.210018)
     (xy -2.294726 -1.292322) (xy -2.294951 -1.363842) (xy -2.294765 -1.460475) (xy -2.293755 -1.536944) (xy -2.291593 -1.598104) (xy -2.287951 -1.648811) (xy -2.282502 -1.693922) (xy -2.274916 -1.738290)
     (xy -2.267094 -1.776497) (xy -2.242251 -1.884333) (xy -2.216397 -1.978281) (xy -2.186220 -2.069371) (xy -2.152491 -2.158374) (xy -2.133506 -2.203061) (xy -2.108709 -2.256872) (xy -2.080549 -2.315009)
     (xy -2.051476 -2.372676) (xy -2.023940 -2.425075) (xy -2.000388 -2.467411) (xy -1.983271 -2.494885) (xy -1.976812 -2.502463) (xy -1.965855 -2.516800) (xy -1.949826 -2.544509) (xy -1.945665 -2.552512)
     (xy -1.929493 -2.582115) (xy -1.917260 -2.600695) (xy -1.915443 -2.602561) (xy -1.903943 -2.615230) (xy -1.882627 -2.641348) (xy -1.864011 -2.665081) (xy -1.752616 -2.796184) (xy -1.624880 -2.923985)
     (xy -1.489030 -3.040396) (xy -1.457684 -3.064571) (xy -1.286319 -3.180389) (xy -1.101351 -3.280512) (xy -0.908436 -3.362334) (xy -0.713231 -3.423248) (xy -0.644384 -3.439366) (xy -0.592454 -3.450503)
     (xy -0.538325 -3.462229) (xy -0.523104 -3.465554) (xy -0.477651 -3.473470) (xy -0.434543 -3.477795) (xy -0.423006 -3.478085) (xy -0.381625 -3.477746) )(layer F.SilkS) (width  0.010000)
  )
  (fp_poly (pts (xy 0.978253 -3.132461) (xy 1.014059 -3.109992) (xy 1.060892 -3.076063) (xy 1.115188 -3.033553) (xy 1.173380 -2.985342) (xy 1.231903 -2.934308) (xy 1.287191 -2.883332) (xy 1.335680 -2.835292)
     (xy 1.337652 -2.833237) (xy 1.443026 -2.717219) (xy 1.531592 -2.605500) (xy 1.608640 -2.490641) (xy 1.679463 -2.365201) (xy 1.701963 -2.321034) (xy 1.783028 -2.139186) (xy 1.844605 -1.956496)
     (xy 1.888086 -1.767470) (xy 1.914864 -1.566611) (xy 1.923007 -1.448463) (xy 1.930747 -1.289094) (xy 1.860875 -1.258193) (xy 1.822140 -1.242571) (xy 1.763564 -1.220898) (xy 1.689208 -1.194528)
     (xy 1.603136 -1.164818) (xy 1.509409 -1.133121) (xy 1.412089 -1.100795) (xy 1.315239 -1.069193) (xy 1.222921 -1.039671) (xy 1.139197 -1.013584) (xy 1.068129 -0.992287) (xy 1.038522 -0.983835)
     (xy 0.883575 -0.941913) (xy 0.719329 -0.899782) (xy 0.554633 -0.859616) (xy 0.398335 -0.823587) (xy 0.294040 -0.801024) (xy 0.227174 -0.786939) (xy 0.167830 -0.774226) (xy 0.120878 -0.763943)
     (xy 0.091186 -0.757151) (xy 0.084430 -0.755422) (xy 0.070814 -0.757013) (xy 0.056088 -0.772342) (xy 0.037538 -0.805033) (xy 0.020634 -0.840601) (xy -0.043323 -0.995780) (xy -0.102544 -1.169487)
     (xy -0.155336 -1.355413) (xy -0.200008 -1.547246) (xy -0.234868 -1.738676) (xy -0.250503 -1.851822) (xy -0.257973 -1.917689) (xy -0.264178 -1.966735) (xy -0.271594 -1.998904) (xy -0.282693 -2.014143)
     (xy -0.299949 -2.012395) (xy -0.325838 -1.993607) (xy -0.362832 -1.957723) (xy -0.413407 -1.904688) (xy -0.468053 -1.846991) (xy -0.522954 -1.789925) (xy -0.571993 -1.739953) (xy -0.612608 -1.699605)
     (xy -0.642234 -1.671412) (xy -0.658307 -1.657905) (xy -0.660368 -1.657182) (xy -0.658292 -1.671916) (xy -0.642613 -1.703626) (xy -0.615212 -1.749625) (xy -0.577964 -1.807226) (xy -0.532749 -1.873743)
     (xy -0.481444 -1.946489) (xy -0.425926 -2.022778) (xy -0.368076 -2.099923) (xy -0.309769 -2.175236) (xy -0.252884 -2.246032) (xy -0.226955 -2.277241) (xy -0.141068 -2.371528) (xy -0.038425 -2.471323)
     (xy 0.075091 -2.571466) (xy 0.193598 -2.666798) (xy 0.311215 -2.752159) (xy 0.325320 -2.761709) (xy 0.396651 -2.808822) (xy 0.474200 -2.858707) (xy 0.554953 -2.909554) (xy 0.635895 -2.959556)
     (xy 0.714012 -3.006905) (xy 0.786289 -3.049793) (xy 0.849713 -3.086413) (xy 0.901268 -3.114956) (xy 0.937942 -3.133615) (xy 0.956718 -3.140581) (xy 0.957040 -3.140591) (xy 0.978253 -3.132461) )(layer F.SilkS) (width  0.010000)
  )
  (fp_poly (pts (xy -0.521883 -1.472917) (xy -0.491147 -1.453185) (xy -0.473186 -1.438931) (xy -0.423187 -1.382715) (xy -0.390000 -1.313787) (xy -0.375285 -1.238664) (xy -0.380701 -1.163863) (xy -0.393160 -1.124508)
     (xy -0.425852 -1.072390) (xy -0.473916 -1.027196) (xy -0.531246 -0.992232) (xy -0.591732 -0.970809) (xy -0.649268 -0.966232) (xy -0.675665 -0.971502) (xy -0.736190 -0.992373) (xy -0.778031 -1.009563)
     (xy -0.798860 -1.022067) (xy -0.800788 -1.025540) (xy -0.789425 -1.031620) (xy -0.759886 -1.037370) (xy -0.725649 -1.040949) (xy -0.646997 -1.057699) (xy -0.582368 -1.094426) (xy -0.533490 -1.149314)
     (xy -0.502091 -1.220543) (xy -0.490716 -1.288110) (xy -0.490484 -1.338241) (xy -0.500057 -1.379109) (xy -0.517897 -1.417019) (xy -0.535298 -1.454815) (xy -0.536613 -1.473454) (xy -0.521883 -1.472917) )(layer F.SilkS) (width  0.010000)
  )
  (fp_poly (pts (xy -0.669535 -1.467259) (xy -0.619311 -1.432728) (xy -0.585483 -1.388867) (xy -0.567998 -1.336778) (xy -0.565376 -1.278594) (xy -0.576899 -1.223553) (xy -0.601628 -1.181128) (xy -0.655620 -1.138733)
     (xy -0.716735 -1.116167) (xy -0.779470 -1.114298) (xy -0.838321 -1.133997) (xy -0.850843 -1.141748) (xy -0.900588 -1.188658) (xy -0.928846 -1.243970) (xy -0.935777 -1.303531) (xy -0.921543 -1.363191)
     (xy -0.886306 -1.418799) (xy -0.838452 -1.460812) (xy -0.785202 -1.483035) (xy -0.726865 -1.484606) (xy -0.669535 -1.467259) )(layer F.SilkS) (width  0.010000)
  )
  (fp_poly (pts (xy 0.554180 -3.348514) (xy 0.587794 -3.336147) (xy 0.628029 -3.319184) (xy 0.668284 -3.300611) (xy 0.701959 -3.283412) (xy 0.722453 -3.270575) (xy 0.725715 -3.266495) (xy 0.715471 -3.257295)
     (xy 0.688211 -3.239849) (xy 0.649141 -3.217414) (xy 0.635000 -3.209716) (xy 0.515306 -3.142844) (xy 0.396043 -3.070778) (xy 0.273315 -2.990919) (xy 0.143226 -2.900670) (xy 0.001879 -2.797433)
     (xy -0.108340 -2.714144) (xy -0.195930 -2.647744) (xy -0.265884 -2.596149) (xy -0.319937 -2.558322) (xy -0.359821 -2.533225) (xy -0.387273 -2.519820) (xy -0.404025 -2.517069) (xy -0.411813 -2.523935)
     (xy -0.412906 -2.531866) (xy -0.403919 -2.555566) (xy -0.378579 -2.593156) (xy -0.339321 -2.641996) (xy -0.288579 -2.699445) (xy -0.228787 -2.762861) (xy -0.162381 -2.829605) (xy -0.091792 -2.897034)
     (xy -0.019457 -2.962508) (xy -0.001768 -2.977931) (xy 0.060023 -3.029627) (xy 0.128592 -3.084036) (xy 0.200748 -3.138919) (xy 0.273297 -3.192040) (xy 0.343048 -3.241161) (xy 0.406809 -3.284045)
     (xy 0.461387 -3.318453) (xy 0.503589 -3.342149) (xy 0.530224 -3.352895) (xy 0.533789 -3.353300) (xy 0.554180 -3.348514) )(layer F.SilkS) (width  0.010000)
  )
)
