EESchema Schematic File Version 4
EELAYER 30 0
EELAYER END
$Descr A4 11693 8268
encoding utf-8
Sheet 1 1
Title ""
Date ""
Rev ""
Comp ""
Comment1 ""
Comment2 ""
Comment3 ""
Comment4 ""
$EndDescr
$Comp
L power:GND #PWR0101
U 1 1 5FA061DB
P 4375 3600
F 0 "#PWR0101" H 4375 3350 50  0001 C CNN
F 1 "GND" H 4380 3427 50  0000 C CNN
F 2 "" H 4375 3600 50  0001 C CNN
F 3 "" H 4375 3600 50  0001 C CNN
	1    4375 3600
	-1   0    0    1   
$EndComp
Wire Wire Line
	4375 3600 4375 3650
Wire Wire Line
	4375 3650 4475 3650
$Comp
L power:+3V3 #PWR0102
U 1 1 5FA06AEF
P 4375 3850
F 0 "#PWR0102" H 4375 3700 50  0001 C CNN
F 1 "+3V3" V 4390 3978 50  0000 L CNN
F 2 "" H 4375 3850 50  0001 C CNN
F 3 "" H 4375 3850 50  0001 C CNN
	1    4375 3850
	0    -1   -1   0   
$EndComp
Wire Wire Line
	4375 3750 4475 3750
Wire Wire Line
	4375 3850 4475 3850
$Comp
L power:+5V #PWR0103
U 1 1 5FA07E0C
P 4375 3750
F 0 "#PWR0103" H 4375 3600 50  0001 C CNN
F 1 "+5V" V 4390 3878 50  0000 L CNN
F 2 "" H 4375 3750 50  0001 C CNN
F 3 "" H 4375 3750 50  0001 C CNN
	1    4375 3750
	0    -1   -1   0   
$EndComp
$Comp
L Switch:SW_Push SW1
U 1 1 5FA0A32D
P 3725 4150
F 0 "SW1" H 3725 4435 50  0000 C CNN
F 1 "SW_Push" H 3725 4344 50  0000 C CNN
F 2 "Button_Switch_SMD:SW_Push_1P1T_NO_6x6mm_H9.5mm" H 3725 4350 50  0001 C CNN
F 3 "~" H 3725 4350 50  0001 C CNN
	1    3725 4150
	1    0    0    -1  
$EndComp
$Comp
L power:GND #PWR0104
U 1 1 5FA0AD07
P 3475 4200
F 0 "#PWR0104" H 3475 3950 50  0001 C CNN
F 1 "GND" H 3480 4027 50  0000 C CNN
F 2 "" H 3475 4200 50  0001 C CNN
F 3 "" H 3475 4200 50  0001 C CNN
	1    3475 4200
	1    0    0    -1  
$EndComp
$Comp
L Connector_Generic:Conn_01x07 J1
U 1 1 5FA05E91
P 4675 3950
F 0 "J1" H 4593 3425 50  0000 C CNN
F 1 "Conn_01x07" H 4593 3516 50  0000 C CNN
F 2 "Connector_PinSocket_2.54mm:PinSocket_2x07_P2.54mm_Vertical" H 4675 3950 50  0001 C CNN
F 3 "~" H 4675 3950 50  0001 C CNN
	1    4675 3950
	1    0    0    1   
$EndComp
Wire Wire Line
	4375 4250 4475 4250
Wire Wire Line
	6025 3700 5875 3700
Wire Wire Line
	6025 3800 5875 3800
Wire Wire Line
	6025 3900 5875 3900
Wire Wire Line
	6025 4000 5875 4000
Wire Wire Line
	6025 4100 5875 4100
$Comp
L power:GND #PWR0105
U 1 1 5FA1A826
P 5775 4300
F 0 "#PWR0105" H 5775 4050 50  0001 C CNN
F 1 "GND" H 5780 4127 50  0000 C CNN
F 2 "" H 5775 4300 50  0001 C CNN
F 3 "" H 5775 4300 50  0001 C CNN
	1    5775 4300
	1    0    0    -1  
$EndComp
Wire Wire Line
	5775 4300 5775 4200
Wire Wire Line
	5775 4200 6025 4200
Text GLabel 5875 4100 0    50   Input ~ 0
SBWTDIO
Text GLabel 5875 4000 0    50   Input ~ 0
SBWTCK
Text GLabel 5875 3900 0    50   Input ~ 0
UART_RXD
Text GLabel 5875 3800 0    50   Input ~ 0
UART_TXD
$Comp
L power:+3V3 #PWR0106
U 1 1 5FA1D514
P 5875 3700
F 0 "#PWR0106" H 5875 3550 50  0001 C CNN
F 1 "+3V3" V 5890 3828 50  0000 L CNN
F 2 "" H 5875 3700 50  0001 C CNN
F 3 "" H 5875 3700 50  0001 C CNN
	1    5875 3700
	0    -1   -1   0   
$EndComp
Text GLabel 4375 4050 0    50   Input ~ 0
UART_TXD
Text GLabel 4375 3950 0    50   Input ~ 0
UART_RXD
Wire Wire Line
	3475 4200 3475 4150
Wire Wire Line
	3475 4150 3525 4150
Wire Wire Line
	3925 4150 4475 4150
Text GLabel 3925 4150 3    50   Input ~ 0
SBWTDIO
Text GLabel 4375 4250 0    50   Input ~ 0
SBWTCK
$Comp
L Connector_Generic:Conn_01x06 J2
U 1 1 5FA0E222
P 6225 4000
F 0 "J2" H 6143 3475 50  0000 C CNN
F 1 "Conn_01x06" H 6143 3566 50  0000 C CNN
F 2 "Connector_Wire:SolderWire-0.127sqmm_1x06_P3.7mm_D0.48mm_OD1mm_Relief2x" H 6225 4000 50  0001 C CNN
F 3 "~" H 6225 4000 50  0001 C CNN
	1    6225 4000
	1    0    0    1   
$EndComp
$Comp
L Connector_Generic:Conn_02x03_Odd_Even J3
U 1 1 5FA2BB0E
P 7225 3800
F 0 "J3" H 7275 4117 50  0000 C CNN
F 1 "Conn_02x03_Odd_Even" H 7275 4026 50  0000 C CNN
F 2 "Connector_PinHeader_2.54mm:PinHeader_2x03_P2.54mm_Vertical" H 7225 3800 50  0001 C CNN
F 3 "~" H 7225 3800 50  0001 C CNN
	1    7225 3800
	1    0    0    -1  
$EndComp
$Comp
L power:+3V3 #PWR0107
U 1 1 5FA2C45D
P 6925 3700
F 0 "#PWR0107" H 6925 3550 50  0001 C CNN
F 1 "+3V3" V 6940 3828 50  0000 L CNN
F 2 "" H 6925 3700 50  0001 C CNN
F 3 "" H 6925 3700 50  0001 C CNN
	1    6925 3700
	0    -1   -1   0   
$EndComp
$Comp
L power:+3V3 #PWR0108
U 1 1 5FA2C817
P 7675 3700
F 0 "#PWR0108" H 7675 3550 50  0001 C CNN
F 1 "+3V3" V 7690 3828 50  0000 L CNN
F 2 "" H 7675 3700 50  0001 C CNN
F 3 "" H 7675 3700 50  0001 C CNN
	1    7675 3700
	0    1    1    0   
$EndComp
$Comp
L power:+5V #PWR0109
U 1 1 5FA2D77F
P 6925 3800
F 0 "#PWR0109" H 6925 3650 50  0001 C CNN
F 1 "+5V" V 6940 3928 50  0000 L CNN
F 2 "" H 6925 3800 50  0001 C CNN
F 3 "" H 6925 3800 50  0001 C CNN
	1    6925 3800
	0    -1   -1   0   
$EndComp
$Comp
L power:+5V #PWR0110
U 1 1 5FA2E0EC
P 7675 3800
F 0 "#PWR0110" H 7675 3650 50  0001 C CNN
F 1 "+5V" V 7690 3928 50  0000 L CNN
F 2 "" H 7675 3800 50  0001 C CNN
F 3 "" H 7675 3800 50  0001 C CNN
	1    7675 3800
	0    1    1    0   
$EndComp
$Comp
L power:GND #PWR0111
U 1 1 5FA2EC6D
P 6925 3950
F 0 "#PWR0111" H 6925 3700 50  0001 C CNN
F 1 "GND" H 6930 3777 50  0000 C CNN
F 2 "" H 6925 3950 50  0001 C CNN
F 3 "" H 6925 3950 50  0001 C CNN
	1    6925 3950
	1    0    0    -1  
$EndComp
$Comp
L power:GND #PWR0112
U 1 1 5FA2EFD2
P 7675 3950
F 0 "#PWR0112" H 7675 3700 50  0001 C CNN
F 1 "GND" H 7680 3777 50  0000 C CNN
F 2 "" H 7675 3950 50  0001 C CNN
F 3 "" H 7675 3950 50  0001 C CNN
	1    7675 3950
	1    0    0    -1  
$EndComp
Wire Wire Line
	6925 3950 6925 3900
Wire Wire Line
	6925 3900 7025 3900
Wire Wire Line
	6925 3800 7025 3800
Wire Wire Line
	7025 3700 6925 3700
Wire Wire Line
	7525 3700 7675 3700
Wire Wire Line
	7675 3800 7525 3800
Wire Wire Line
	7525 3900 7675 3900
Wire Wire Line
	7675 3900 7675 3950
Wire Wire Line
	4375 3950 4475 3950
Wire Wire Line
	4475 4050 4375 4050
$EndSCHEMATC
